
-----------------------------------------------
15/02/2021 9:50:28 AM      PatientMonitoring.btnSaveProgNotes_Click
Thread was being aborted.
-----------------------------------------------
15/02/2021 9:50:40 AM      PatientMonitoring.btnSaveEmerNotes_Click
Thread was being aborted.
